person,Person
bicycle,Bicycle
car,Car
motorbike,Motorcycle
aeroplane,Airplane
bus,Bus
train,Train
truck,Truck
boat,Boat
traffic light,Traffic light
fire hydrant,Fire hydrant
stop sign,Stop sign
parking meter,Parking meter
bench,Bench
bird,Bird
cat,Cat
dog,Dog
horse,Horse
sheep,Sheep
cow,Bull
elephant,Elephant
bear,Bear
zebra,Zebra
giraffe,Giraffe
backpack,Backpack
umbrella,Umbrella
handbag,Handbag
tie,Tie
suitcase,Suitcase
frisbee,Flying disc
skis,Ski
snowboard,Snowboard
sports ball,Ball
kite,Kite
baseball bat,Baseball bat
baseball glove,Baseball glove
skateboard,Skateboard
surfboard,Surfboard
tennis racket,Table tennis racket
bottle,Bottle
wine glass,Wine glass
cup,Coffee cup
fork,Fork
knife,Kitchen knife
spoon,Spoon
bowl,Bowl
banana,Banana
apple,Apple
sandwich,Sandwich
orange,Orange
broccoli,Broccoli
carrot,Carrot
hot dog,Hot dog
pizza,Pizza
donut,Doughnut
cake,Cake
chair,Chair
sofa,Sofa bed
pottedplant,Houseplant
bed,Bed
diningtable,Kitchen & dining room table
toilet,Toilet
tvmonitor,Television
laptop,Laptop
mouse,Mouse
remote,Remote control
keyboard,Computer keyboard
cell phone,Telephone
microwave,Microwave oven
oven,Oven
toaster,Toaster
sink,Sink
refrigerator,Refrigerator
book,Book
clock,Clock
vase,Vase
scissors,Scissors
teddy bear,Teddy bear
hair drier,Hair dryer
toothbrush,Toothbrush
